{
	"type": "Group",
	"label": "Mailchimp",
	"description": "Mailchimp example",
	"style": {
		"layout": {
			"direction": "row",
			"align": "stretch",
			"justify": "center"
		}
	},
	"contents": [
		{
			"type": "MailchimpSubscribe",
			"name": "Mailchimp",
			"username": "dpq",
			"dc": "us16",
			"u": "5c05046d30a51df328ea66bfa",
			"id": "082cc6255c"
		}
	]
}